%YAML 1.1
%TAG !u! tag:unity3d.com,2011:
--- !u!74 &7400000
AnimationClip:
  m_ObjectHideFlags: 0
  m_CorrespondingSourceObject: {fileID: 0}
  m_PrefabInstance: {fileID: 0}
  m_PrefabAsset: {fileID: 0}
  m_Name: RedPortal
  serializedVersion: 6
  m_Legacy: 0
  m_Compressed: 0
  m_UseHighQualityCurve: 1
  m_RotationCurves: []
  m_CompressedRotationCurves: []
  m_EulerCurves: []
  m_PositionCurves: []
  m_ScaleCurves: []
  m_FloatCurves: []
  m_PPtrCurves:
  - curve:
    - time: 0
      value: {fileID: 2846283610547971669, guid: 095fee0fccecf10409b8ae9b2ed7236e,
        type: 3}
    - time: 0.083333336
      value: {fileID: 4154717960927257255, guid: 095fee0fccecf10409b8ae9b2ed7236e,
        type: 3}
    - time: 0.16666667
      value: {fileID: -8746530846304310445, guid: 095fee0fccecf10409b8ae9b2ed7236e,
        type: 3}
    - time: 0.25
      value: {fileID: 5950296729975679785, guid: 095fee0fccecf10409b8ae9b2ed7236e,
        type: 3}
    - time: 0.33333334
      value: {fileID: -5651913458006738511, guid: 095fee0fccecf10409b8ae9b2ed7236e,
        type: 3}
    - time: 0.41666666
      value: {fileID: -4850354188951050402, guid: 095fee0fccecf10409b8ae9b2ed7236e,
        type: 3}
    - time: 0.5
      value: {fileID: 6847764715107817780, guid: 095fee0fccecf10409b8ae9b2ed7236e,
        type: 3}
    - time: 0.5833333
      value: {fileID: -2035922729068386260, guid: 095fee0fccecf10409b8ae9b2ed7236e,
        type: 3}
    - time: 0.6666667
      value: {fileID: -556064749581624816, guid: 095fee0fccecf10409b8ae9b2ed7236e,
        type: 3}
    - time: 0.75
      value: {fileID: 5327662436808108362, guid: 095fee0fccecf10409b8ae9b2ed7236e,
        type: 3}
    - time: 0.8333333
      value: {fileID: -2795745861068890244, guid: 095fee0fccecf10409b8ae9b2ed7236e,
        type: 3}
    - time: 0.9166667
      value: {fileID: -1567169372116586844, guid: 095fee0fccecf10409b8ae9b2ed7236e,
        type: 3}
    - time: 1
      value: {fileID: 2917727078595061531, guid: 095fee0fccecf10409b8ae9b2ed7236e,
        type: 3}
    - time: 1.0833334
      value: {fileID: 5772190132450802749, guid: 095fee0fccecf10409b8ae9b2ed7236e,
        type: 3}
    - time: 1.1666666
      value: {fileID: 6901878693630533919, guid: 095fee0fccecf10409b8ae9b2ed7236e,
        type: 3}
    attribute: m_Sprite
    path: 
    classID: 212
    script: {fileID: 0}
  m_SampleRate: 12
  m_WrapMode: 0
  m_Bounds:
    m_Center: {x: 0, y: 0, z: 0}
    m_Extent: {x: 0, y: 0, z: 0}
  m_ClipBindingConstant:
    genericBindings:
    - serializedVersion: 2
      path: 0
      attribute: 0
      script: {fileID: 0}
      typeID: 212
      customType: 23
      isPPtrCurve: 1
    pptrCurveMapping:
    - {fileID: 2846283610547971669, guid: 095fee0fccecf10409b8ae9b2ed7236e, type: 3}
    - {fileID: 4154717960927257255, guid: 095fee0fccecf10409b8ae9b2ed7236e, type: 3}
    - {fileID: -8746530846304310445, guid: 095fee0fccecf10409b8ae9b2ed7236e, type: 3}
    - {fileID: 5950296729975679785, guid: 095fee0fccecf10409b8ae9b2ed7236e, type: 3}
    - {fileID: -5651913458006738511, guid: 095fee0fccecf10409b8ae9b2ed7236e, type: 3}
    - {fileID: -4850354188951050402, guid: 095fee0fccecf10409b8ae9b2ed7236e, type: 3}
    - {fileID: 6847764715107817780, guid: 095fee0fccecf10409b8ae9b2ed7236e, type: 3}
    - {fileID: -2035922729068386260, guid: 095fee0fccecf10409b8ae9b2ed7236e, type: 3}
    - {fileID: -556064749581624816, guid: 095fee0fccecf10409b8ae9b2ed7236e, type: 3}
    - {fileID: 5327662436808108362, guid: 095fee0fccecf10409b8ae9b2ed7236e, type: 3}
    - {fileID: -2795745861068890244, guid: 095fee0fccecf10409b8ae9b2ed7236e, type: 3}
    - {fileID: -1567169372116586844, guid: 095fee0fccecf10409b8ae9b2ed7236e, type: 3}
    - {fileID: 2917727078595061531, guid: 095fee0fccecf10409b8ae9b2ed7236e, type: 3}
    - {fileID: 5772190132450802749, guid: 095fee0fccecf10409b8ae9b2ed7236e, type: 3}
    - {fileID: 6901878693630533919, guid: 095fee0fccecf10409b8ae9b2ed7236e, type: 3}
  m_AnimationClipSettings:
    serializedVersion: 2
    m_AdditiveReferencePoseClip: {fileID: 0}
    m_AdditiveReferencePoseTime: 0
    m_StartTime: 0
    m_StopTime: 1.25
    m_OrientationOffsetY: 0
    m_Level: 0
    m_CycleOffset: 0
    m_HasAdditiveReferencePose: 0
    m_LoopTime: 1
    m_LoopBlend: 0
    m_LoopBlendOrientation: 0
    m_LoopBlendPositionY: 0
    m_LoopBlendPositionXZ: 0
    m_KeepOriginalOrientation: 0
    m_KeepOriginalPositionY: 1
    m_KeepOriginalPositionXZ: 0
    m_HeightFromFeet: 0
    m_Mirror: 0
  m_EditorCurves: []
  m_EulerEditorCurves: []
  m_HasGenericRootTransform: 0
  m_HasMotionFloatCurves: 0
  m_Events: []
