%YAML 1.1
%TAG !u! tag:unity3d.com,2011:
--- !u!78 &1
TagManager:
  serializedVersion: 2
  tags:
  - BluePortal
  layers:
  - Default
  - TransparentFX
  - Ignore Raycast
  - 
  - Water
  - UI
  - 
  - 
  - 
  - 
  - 
  - 
  - 
  - 
  - 
  - 
  - 
  - 
  - 
  - 
  - 
  - 
  - 
  - 
  - 
  - 
  - 
  - 
  - 
  - 
  - 
  - 
  m_SortingLayers:
  - name: Default
    uniqueID: 0
    locked: 0
  - name: Tile
    uniqueID: 3356859041
    locked: 0
  - name: Tower Range Indicator
    uniqueID: 1215888951
    locked: 0
  - name: Tower
    uniqueID: 477495147
    locked: 0
  - name: UI
    uniqueID: 3761390375
    locked: 0
  - name: Hover
    uniqueID: 1402872229
    locked: 0
